%YAML 1.1
%TAG !u! tag:unity3d.com,2011:
--- !u!29 &1
OcclusionCullingSettings:
  m_ObjectHideFlags: 0
  serializedVersion: 2
  m_OcclusionBakeSettings:
    smallestOccluder: 5
    smallestHole: 0.25
    backfaceThreshold: 100
  m_SceneGUID: 00000000000000000000000000000000
  m_OcclusionCullingData: {fileID: 0}
--- !u!104 &2
RenderSettings:
  m_ObjectHideFlags: 0
  serializedVersion: 9
  m_Fog: 0
  m_FogColor: {r: 0.5, g: 0.5, b: 0.5, a: 1}
  m_FogMode: 3
  m_FogDensity: 0.01
  m_LinearFogStart: 0
  m_LinearFogEnd: 300
  m_AmbientSkyColor: {r: 0.212, g: 0.227, b: 0.259, a: 1}
  m_AmbientEquatorColor: {r: 0.114, g: 0.125, b: 0.133, a: 1}
  m_AmbientGroundColor: {r: 0.047, g: 0.043, b: 0.035, a: 1}
  m_AmbientIntensity: 0.72
  m_AmbientMode: 0
  m_SubtractiveShadowColor: {r: 0.42, g: 0.478, b: 0.627, a: 1}
  m_SkyboxMaterial: {fileID: 10304, guid: 0000000000000000f000000000000000, type: 0}
  m_HaloStrength: 0.5
  m_FlareStrength: 1
  m_FlareFadeSpeed: 3
  m_HaloTexture: {fileID: 0}
  m_SpotCookie: {fileID: 10001, guid: 0000000000000000e000000000000000, type: 0}
  m_DefaultReflectionMode: 0
  m_DefaultReflectionResolution: 512
  m_ReflectionBounces: 1
  m_ReflectionIntensity: 1
  m_CustomReflection: {fileID: 0}
  m_Sun: {fileID: 0}
  m_IndirectSpecularColor: {r: 0, g: 0, b: 0, a: 1}
  m_UseRadianceAmbientProbe: 0
--- !u!157 &3
LightmapSettings:
  m_ObjectHideFlags: 0
  serializedVersion: 12
  m_GIWorkflowMode: 0
  m_GISettings:
    serializedVersion: 2
    m_BounceScale: 1
    m_IndirectOutputScale: 1
    m_AlbedoBoost: 1
    m_EnvironmentLightingMode: 0
    m_EnableBakedLightmaps: 1
    m_EnableRealtimeLightmaps: 1
  m_LightmapEditorSettings:
    serializedVersion: 12
    m_Resolution: 2
    m_BakeResolution: 40
    m_AtlasSize: 1024
    m_AO: 0
    m_AOMaxDistance: 1
    m_CompAOExponent: 1
    m_CompAOExponentDirect: 0
    m_ExtractAmbientOcclusion: 0
    m_Padding: 2
    m_LightmapParameters: {fileID: 0}
    m_LightmapsBakeMode: 1
    m_TextureCompression: 1
    m_FinalGather: 0
    m_FinalGatherFiltering: 1
    m_FinalGatherRayCount: 256
    m_ReflectionCompression: 2
    m_MixedBakeMode: 1
    m_BakeBackend: 0
    m_PVRSampling: 1
    m_PVRDirectSampleCount: 32
    m_PVRSampleCount: 512
    m_PVRBounces: 2
    m_PVREnvironmentSampleCount: 512
    m_PVREnvironmentReferencePointCount: 2048
    m_PVRFilteringMode: 0
    m_PVRDenoiserTypeDirect: 0
    m_PVRDenoiserTypeIndirect: 0
    m_PVRDenoiserTypeAO: 0
    m_PVRFilterTypeDirect: 0
    m_PVRFilterTypeIndirect: 0
    m_PVRFilterTypeAO: 0
    m_PVREnvironmentMIS: 0
    m_PVRCulling: 1
    m_PVRFilteringGaussRadiusDirect: 1
    m_PVRFilteringGaussRadiusIndirect: 5
    m_PVRFilteringGaussRadiusAO: 2
    m_PVRFilteringAtrousPositionSigmaDirect: 0.5
    m_PVRFilteringAtrousPositionSigmaIndirect: 2
    m_PVRFilteringAtrousPositionSigmaAO: 1
    m_ExportTrainingData: 0
    m_TrainingDataDestination: TrainingData
    m_LightProbeSampleCountMultiplier: 4
  m_LightingDataAsset: {fileID: 0}
  m_LightingSettings: {fileID: 4890085278179872738, guid: f61c747641c4a6349949c1cedb0e71c6, type: 2}
--- !u!196 &4
NavMeshSettings:
  serializedVersion: 2
  m_ObjectHideFlags: 0
  m_BuildSettings:
    serializedVersion: 2
    agentTypeID: 0
    agentRadius: 0.5
    agentHeight: 2
    agentSlope: 45
    agentClimb: 0.4
    ledgeDropHeight: 0
    maxJumpAcrossDistance: 0
    minRegionArea: 2
    manualCellSize: 0
    cellSize: 0.16666667
    manualTileSize: 0
    tileSize: 256
    accuratePlacement: 0
    maxJobWorkers: 0
    preserveTilesOutsideBounds: 0
    debug:
      m_Flags: 0
  m_NavMeshData: {fileID: 0}
--- !u!1001 &17560015
PrefabInstance:
  m_ObjectHideFlags: 0
  serializedVersion: 2
  m_Modification:
    m_TransformParent: {fileID: 0}
    m_Modifications:
    - target: {fileID: 4000012229298452, guid: 8477ba9e2b44c124da0b6249a8c9e671, type: 3}
      propertyPath: m_RootOrder
      value: 3
      objectReference: {fileID: 0}
    - target: {fileID: 4000012229298452, guid: 8477ba9e2b44c124da0b6249a8c9e671, type: 3}
      propertyPath: m_LocalPosition.x
      value: -1.722
      objectReference: {fileID: 0}
    - target: {fileID: 4000012229298452, guid: 8477ba9e2b44c124da0b6249a8c9e671, type: 3}
      propertyPath: m_LocalPosition.y
      value: 0.924
      objectReference: {fileID: 0}
    - target: {fileID: 4000012229298452, guid: 8477ba9e2b44c124da0b6249a8c9e671, type: 3}
      propertyPath: m_LocalPosition.z
      value: -0.118
      objectReference: {fileID: 0}
    - target: {fileID: 4000012229298452, guid: 8477ba9e2b44c124da0b6249a8c9e671, type: 3}
      propertyPath: m_LocalRotation.w
      value: 1
      objectReference: {fileID: 0}
    - target: {fileID: 4000012229298452, guid: 8477ba9e2b44c124da0b6249a8c9e671, type: 3}
      propertyPath: m_LocalRotation.x
      value: 0
      objectReference: {fileID: 0}
    - target: {fileID: 4000012229298452, guid: 8477ba9e2b44c124da0b6249a8c9e671, type: 3}
      propertyPath: m_LocalRotation.y
      value: 0
      objectReference: {fileID: 0}
    - target: {fileID: 4000012229298452, guid: 8477ba9e2b44c124da0b6249a8c9e671, type: 3}
      propertyPath: m_LocalRotation.z
      value: 0
      objectReference: {fileID: 0}
    m_RemovedComponents: []
  m_SourcePrefab: {fileID: 100100000, guid: 8477ba9e2b44c124da0b6249a8c9e671, type: 3}
--- !u!1001 &859440319
PrefabInstance:
  m_ObjectHideFlags: 0
  serializedVersion: 2
  m_Modification:
    m_TransformParent: {fileID: 0}
    m_Modifications:
    - target: {fileID: 1000012576842408, guid: 465aef85895ef654fb4858d8408d2c53, type: 3}
      propertyPath: m_Name
      value: wall_mount (1)
      objectReference: {fileID: 0}
    - target: {fileID: 4000010523639348, guid: 465aef85895ef654fb4858d8408d2c53, type: 3}
      propertyPath: m_RootOrder
      value: 5
      objectReference: {fileID: 0}
    - target: {fileID: 4000010523639348, guid: 465aef85895ef654fb4858d8408d2c53, type: 3}
      propertyPath: m_LocalPosition.x
      value: 2.838
      objectReference: {fileID: 0}
    - target: {fileID: 4000010523639348, guid: 465aef85895ef654fb4858d8408d2c53, type: 3}
      propertyPath: m_LocalPosition.y
      value: 0.91
      objectReference: {fileID: 0}
    - target: {fileID: 4000010523639348, guid: 465aef85895ef654fb4858d8408d2c53, type: 3}
      propertyPath: m_LocalPosition.z
      value: -0.593
      objectReference: {fileID: 0}
    - target: {fileID: 4000010523639348, guid: 465aef85895ef654fb4858d8408d2c53, type: 3}
      propertyPath: m_LocalRotation.w
      value: 1
      objectReference: {fileID: 0}
    - target: {fileID: 4000010523639348, guid: 465aef85895ef654fb4858d8408d2c53, type: 3}
      propertyPath: m_LocalRotation.x
      value: 0
      objectReference: {fileID: 0}
    - target: {fileID: 4000010523639348, guid: 465aef85895ef654fb4858d8408d2c53, type: 3}
      propertyPath: m_LocalRotation.y
      value: 0
      objectReference: {fileID: 0}
    - target: {fileID: 4000010523639348, guid: 465aef85895ef654fb4858d8408d2c53, type: 3}
      propertyPath: m_LocalRotation.z
      value: 0
      objectReference: {fileID: 0}
    - target: {fileID: 4000011094500090, guid: 465aef85895ef654fb4858d8408d2c53, type: 3}
      propertyPath: m_LocalRotation.w
      value: 0.90130347
      objectReference: {fileID: 0}
    - target: {fileID: 4000011094500090, guid: 465aef85895ef654fb4858d8408d2c53, type: 3}
      propertyPath: m_LocalRotation.y
      value: 0.43318835
      objectReference: {fileID: 0}
    - target: {fileID: 4000011094500090, guid: 465aef85895ef654fb4858d8408d2c53, type: 3}
      propertyPath: m_LocalEulerAnglesHint.y
      value: 51.072002
      objectReference: {fileID: 0}
    - target: {fileID: 4000012756390748, guid: 465aef85895ef654fb4858d8408d2c53, type: 3}
      propertyPath: m_LocalRotation.w
      value: 0.9465716
      objectReference: {fileID: 0}
    - target: {fileID: 4000012756390748, guid: 465aef85895ef654fb4858d8408d2c53, type: 3}
      propertyPath: m_LocalRotation.x
      value: 0.2998831
      objectReference: {fileID: 0}
    - target: {fileID: 4000012756390748, guid: 465aef85895ef654fb4858d8408d2c53, type: 3}
      propertyPath: m_LocalRotation.y
      value: -0.117460795
      objectReference: {fileID: 0}
    - target: {fileID: 4000012756390748, guid: 465aef85895ef654fb4858d8408d2c53, type: 3}
      propertyPath: m_LocalRotation.z
      value: 0.016596042
      objectReference: {fileID: 0}
    - target: {fileID: 4000012756390748, guid: 465aef85895ef654fb4858d8408d2c53, type: 3}
      propertyPath: m_LocalEulerAnglesHint.x
      value: 34.855003
      objectReference: {fileID: 0}
    - target: {fileID: 4000012756390748, guid: 465aef85895ef654fb4858d8408d2c53, type: 3}
      propertyPath: m_LocalEulerAnglesHint.y
      value: -14.695001
      objectReference: {fileID: 0}
    - target: {fileID: 4000012756390748, guid: 465aef85895ef654fb4858d8408d2c53, type: 3}
      propertyPath: m_LocalEulerAnglesHint.z
      value: -2.647
      objectReference: {fileID: 0}
    - target: {fileID: 4000012875530066, guid: 465aef85895ef654fb4858d8408d2c53, type: 3}
      propertyPath: m_LocalRotation.w
      value: 0.98372275
      objectReference: {fileID: 0}
    - target: {fileID: 4000012875530066, guid: 465aef85895ef654fb4858d8408d2c53, type: 3}
      propertyPath: m_LocalRotation.y
      value: -0.17969322
      objectReference: {fileID: 0}
    - target: {fileID: 4000012875530066, guid: 465aef85895ef654fb4858d8408d2c53, type: 3}
      propertyPath: m_LocalEulerAnglesHint.y
      value: -20.431002
      objectReference: {fileID: 0}
    m_RemovedComponents: []
  m_SourcePrefab: {fileID: 100100000, guid: 465aef85895ef654fb4858d8408d2c53, type: 3}
--- !u!1001 &889709805
PrefabInstance:
  m_ObjectHideFlags: 0
  serializedVersion: 2
  m_Modification:
    m_TransformParent: {fileID: 0}
    m_Modifications:
    - target: {fileID: 400000, guid: 5fd959cc26ecad74a8a340ff5e65cd9c, type: 3}
      propertyPath: m_RootOrder
      value: 2
      objectReference: {fileID: 0}
    - target: {fileID: 400000, guid: 5fd959cc26ecad74a8a340ff5e65cd9c, type: 3}
      propertyPath: m_LocalPosition.x
      value: -4.6344795
      objectReference: {fileID: 0}
    - target: {fileID: 400000, guid: 5fd959cc26ecad74a8a340ff5e65cd9c, type: 3}
      propertyPath: m_LocalPosition.y
      value: 0
      objectReference: {fileID: 0}
    - target: {fileID: 400000, guid: 5fd959cc26ecad74a8a340ff5e65cd9c, type: 3}
      propertyPath: m_LocalPosition.z
      value: 4.4763327
      objectReference: {fileID: 0}
    - target: {fileID: 400000, guid: 5fd959cc26ecad74a8a340ff5e65cd9c, type: 3}
      propertyPath: m_LocalRotation.w
      value: 0.7071068
      objectReference: {fileID: 0}
    - target: {fileID: 400000, guid: 5fd959cc26ecad74a8a340ff5e65cd9c, type: 3}
      propertyPath: m_LocalRotation.x
      value: -0.7071068
      objectReference: {fileID: 0}
    - target: {fileID: 400000, guid: 5fd959cc26ecad74a8a340ff5e65cd9c, type: 3}
      propertyPath: m_LocalRotation.y
      value: 0
      objectReference: {fileID: 0}
    - target: {fileID: 400000, guid: 5fd959cc26ecad74a8a340ff5e65cd9c, type: 3}
      propertyPath: m_LocalRotation.z
      value: -0
      objectReference: {fileID: 0}
    m_RemovedComponents: []
  m_SourcePrefab: {fileID: 100100000, guid: 5fd959cc26ecad74a8a340ff5e65cd9c, type: 3}
--- !u!1001 &1016052760
PrefabInstance:
  m_ObjectHideFlags: 0
  serializedVersion: 2
  m_Modification:
    m_TransformParent: {fileID: 0}
    m_Modifications:
    - target: {fileID: 4000010523639348, guid: 465aef85895ef654fb4858d8408d2c53, type: 3}
      propertyPath: m_RootOrder
      value: 4
      objectReference: {fileID: 0}
    - target: {fileID: 4000010523639348, guid: 465aef85895ef654fb4858d8408d2c53, type: 3}
      propertyPath: m_LocalPosition.x
      value: 0.498
      objectReference: {fileID: 0}
    - target: {fileID: 4000010523639348, guid: 465aef85895ef654fb4858d8408d2c53, type: 3}
      propertyPath: m_LocalPosition.y
      value: 0.91
      objectReference: {fileID: 0}
    - target: {fileID: 4000010523639348, guid: 465aef85895ef654fb4858d8408d2c53, type: 3}
      propertyPath: m_LocalPosition.z
      value: -0.593
      objectReference: {fileID: 0}
    - target: {fileID: 4000010523639348, guid: 465aef85895ef654fb4858d8408d2c53, type: 3}
      propertyPath: m_LocalRotation.w
      value: 1
      objectReference: {fileID: 0}
    - target: {fileID: 4000010523639348, guid: 465aef85895ef654fb4858d8408d2c53, type: 3}
      propertyPath: m_LocalRotation.x
      value: 0
      objectReference: {fileID: 0}
    - target: {fileID: 4000010523639348, guid: 465aef85895ef654fb4858d8408d2c53, type: 3}
      propertyPath: m_LocalRotation.y
      value: 0
      objectReference: {fileID: 0}
    - target: {fileID: 4000010523639348, guid: 465aef85895ef654fb4858d8408d2c53, type: 3}
      propertyPath: m_LocalRotation.z
      value: 0
      objectReference: {fileID: 0}
    m_RemovedComponents: []
  m_SourcePrefab: {fileID: 100100000, guid: 465aef85895ef654fb4858d8408d2c53, type: 3}
--- !u!1001 &1484127907
PrefabInstance:
  m_ObjectHideFlags: 0
  serializedVersion: 2
  m_Modification:
    m_TransformParent: {fileID: 0}
    m_Modifications:
    - target: {fileID: 1000012576842408, guid: 465aef85895ef654fb4858d8408d2c53, type: 3}
      propertyPath: m_Name
      value: wall_mount (2)
      objectReference: {fileID: 0}
    - target: {fileID: 4000010523639348, guid: 465aef85895ef654fb4858d8408d2c53, type: 3}
      propertyPath: m_RootOrder
      value: 6
      objectReference: {fileID: 0}
    - target: {fileID: 4000010523639348, guid: 465aef85895ef654fb4858d8408d2c53, type: 3}
      propertyPath: m_LocalPosition.x
      value: 5.183
      objectReference: {fileID: 0}
    - target: {fileID: 4000010523639348, guid: 465aef85895ef654fb4858d8408d2c53, type: 3}
      propertyPath: m_LocalPosition.y
      value: 0.91
      objectReference: {fileID: 0}
    - target: {fileID: 4000010523639348, guid: 465aef85895ef654fb4858d8408d2c53, type: 3}
      propertyPath: m_LocalPosition.z
      value: -0.593
      objectReference: {fileID: 0}
    - target: {fileID: 4000010523639348, guid: 465aef85895ef654fb4858d8408d2c53, type: 3}
      propertyPath: m_LocalRotation.w
      value: 1
      objectReference: {fileID: 0}
    - target: {fileID: 4000010523639348, guid: 465aef85895ef654fb4858d8408d2c53, type: 3}
      propertyPath: m_LocalRotation.x
      value: 0
      objectReference: {fileID: 0}
    - target: {fileID: 4000010523639348, guid: 465aef85895ef654fb4858d8408d2c53, type: 3}
      propertyPath: m_LocalRotation.y
      value: 0
      objectReference: {fileID: 0}
    - target: {fileID: 4000010523639348, guid: 465aef85895ef654fb4858d8408d2c53, type: 3}
      propertyPath: m_LocalRotation.z
      value: 0
      objectReference: {fileID: 0}
    - target: {fileID: 4000011094500090, guid: 465aef85895ef654fb4858d8408d2c53, type: 3}
      propertyPath: m_LocalRotation.w
      value: 0.44544795
      objectReference: {fileID: 0}
    - target: {fileID: 4000011094500090, guid: 465aef85895ef654fb4858d8408d2c53, type: 3}
      propertyPath: m_LocalRotation.y
      value: 0.8953078
      objectReference: {fileID: 0}
    - target: {fileID: 4000011094500090, guid: 465aef85895ef654fb4858d8408d2c53, type: 3}
      propertyPath: m_LocalEulerAnglesHint.y
      value: 127.356
      objectReference: {fileID: 0}
    - target: {fileID: 4000011920759820, guid: 465aef85895ef654fb4858d8408d2c53, type: 3}
      propertyPath: m_LocalRotation.w
      value: 0.85122484
      objectReference: {fileID: 0}
    - target: {fileID: 4000011920759820, guid: 465aef85895ef654fb4858d8408d2c53, type: 3}
      propertyPath: m_LocalRotation.x
      value: -0.5248012
      objectReference: {fileID: 0}
    - target: {fileID: 4000011920759820, guid: 465aef85895ef654fb4858d8408d2c53, type: 3}
      propertyPath: m_LocalRotation.y
      value: -0.00000011920925
      objectReference: {fileID: 0}
    - target: {fileID: 4000011920759820, guid: 465aef85895ef654fb4858d8408d2c53, type: 3}
      propertyPath: m_LocalRotation.z
      value: -0.000000067055204
      objectReference: {fileID: 0}
    - target: {fileID: 4000011920759820, guid: 465aef85895ef654fb4858d8408d2c53, type: 3}
      propertyPath: m_LocalEulerAnglesHint.x
      value: -63.291004
      objectReference: {fileID: 0}
    - target: {fileID: 4000012076793714, guid: 465aef85895ef654fb4858d8408d2c53, type: 3}
      propertyPath: m_LocalPosition.z
      value: 0.041
      objectReference: {fileID: 0}
    - target: {fileID: 4000012076793714, guid: 465aef85895ef654fb4858d8408d2c53, type: 3}
      propertyPath: m_LocalRotation.w
      value: 0.85565585
      objectReference: {fileID: 0}
    - target: {fileID: 4000012076793714, guid: 465aef85895ef654fb4858d8408d2c53, type: 3}
      propertyPath: m_LocalRotation.y
      value: -0.5175452
      objectReference: {fileID: 0}
    - target: {fileID: 4000012076793714, guid: 465aef85895ef654fb4858d8408d2c53, type: 3}
      propertyPath: m_LocalEulerAnglesHint.y
      value: -62.413002
      objectReference: {fileID: 0}
    - target: {fileID: 4000012756390748, guid: 465aef85895ef654fb4858d8408d2c53, type: 3}
      propertyPath: m_LocalRotation.w
      value: 0.9465716
      objectReference: {fileID: 0}
    - target: {fileID: 4000012756390748, guid: 465aef85895ef654fb4858d8408d2c53, type: 3}
      propertyPath: m_LocalRotation.x
      value: 0.2998831
      objectReference: {fileID: 0}
    - target: {fileID: 4000012756390748, guid: 465aef85895ef654fb4858d8408d2c53, type: 3}
      propertyPath: m_LocalRotation.y
      value: -0.117460795
      objectReference: {fileID: 0}
    - target: {fileID: 4000012756390748, guid: 465aef85895ef654fb4858d8408d2c53, type: 3}
      propertyPath: m_LocalRotation.z
      value: 0.016596042
      objectReference: {fileID: 0}
    - target: {fileID: 4000012756390748, guid: 465aef85895ef654fb4858d8408d2c53, type: 3}
      propertyPath: m_LocalEulerAnglesHint.x
      value: 34.855003
      objectReference: {fileID: 0}
    - target: {fileID: 4000012756390748, guid: 465aef85895ef654fb4858d8408d2c53, type: 3}
      propertyPath: m_LocalEulerAnglesHint.y
      value: -14.695001
      objectReference: {fileID: 0}
    - target: {fileID: 4000012756390748, guid: 465aef85895ef654fb4858d8408d2c53, type: 3}
      propertyPath: m_LocalEulerAnglesHint.z
      value: -2.647
      objectReference: {fileID: 0}
    - target: {fileID: 4000012875530066, guid: 465aef85895ef654fb4858d8408d2c53, type: 3}
      propertyPath: m_LocalRotation.w
      value: 0.89229906
      objectReference: {fileID: 0}
    - target: {fileID: 4000012875530066, guid: 465aef85895ef654fb4858d8408d2c53, type: 3}
      propertyPath: m_LocalRotation.y
      value: -0.45144477
      objectReference: {fileID: 0}
    - target: {fileID: 4000012875530066, guid: 465aef85895ef654fb4858d8408d2c53, type: 3}
      propertyPath: m_LocalEulerAnglesHint.y
      value: -53.427002
      objectReference: {fileID: 0}
    m_RemovedComponents: []
  m_SourcePrefab: {fileID: 100100000, guid: 465aef85895ef654fb4858d8408d2c53, type: 3}
--- !u!1 &1515537037
GameObject:
  m_ObjectHideFlags: 0
  m_CorrespondingSourceObject: {fileID: 0}
  m_PrefabInstance: {fileID: 0}
  m_PrefabAsset: {fileID: 0}
  serializedVersion: 6
  m_Component:
  - component: {fileID: 1515537042}
  - component: {fileID: 1515537041}
  - component: {fileID: 1515537039}
  - component: {fileID: 1515537038}
  m_Layer: 0
  m_Name: Main Camera
  m_TagString: MainCamera
  m_Icon: {fileID: 0}
  m_NavMeshLayer: 0
  m_StaticEditorFlags: 0
  m_IsActive: 1
--- !u!81 &1515537038
AudioListener:
  m_ObjectHideFlags: 0
  m_CorrespondingSourceObject: {fileID: 0}
  m_PrefabInstance: {fileID: 0}
  m_PrefabAsset: {fileID: 0}
  m_GameObject: {fileID: 1515537037}
  m_Enabled: 1
--- !u!124 &1515537039
Behaviour:
  m_ObjectHideFlags: 0
  m_CorrespondingSourceObject: {fileID: 0}
  m_PrefabInstance: {fileID: 0}
  m_PrefabAsset: {fileID: 0}
  m_GameObject: {fileID: 1515537037}
  m_Enabled: 1
--- !u!20 &1515537041
Camera:
  m_ObjectHideFlags: 0
  m_CorrespondingSourceObject: {fileID: 0}
  m_PrefabInstance: {fileID: 0}
  m_PrefabAsset: {fileID: 0}
  m_GameObject: {fileID: 1515537037}
  m_Enabled: 1
  serializedVersion: 2
  m_ClearFlags: 1
  m_BackGroundColor: {r: 0.19215687, g: 0.3019608, b: 0.4745098, a: 0}
  m_projectionMatrixMode: 1
  m_GateFitMode: 2
  m_FOVAxisMode: 0
  m_SensorSize: {x: 36, y: 24}
  m_LensShift: {x: 0, y: 0}
  m_FocalLength: 50
  m_NormalizedViewPortRect:
    serializedVersion: 2
    x: 0
    y: 0
    width: 1
    height: 1
  near clip plane: 0.3
  far clip plane: 1000
  field of view: 60
  orthographic: 0
  orthographic size: 5
  m_Depth: -1
  m_CullingMask:
    serializedVersion: 2
    m_Bits: 4294967295
  m_RenderingPath: -1
  m_TargetTexture: {fileID: 0}
  m_TargetDisplay: 0
  m_TargetEye: 3
  m_HDR: 0
  m_AllowMSAA: 1
  m_AllowDynamicResolution: 0
  m_ForceIntoRT: 0
  m_OcclusionCulling: 1
  m_StereoConvergence: 10
  m_StereoSeparation: 0.022
--- !u!4 &1515537042
Transform:
  m_ObjectHideFlags: 0
  m_CorrespondingSourceObject: {fileID: 0}
  m_PrefabInstance: {fileID: 0}
  m_PrefabAsset: {fileID: 0}
  m_GameObject: {fileID: 1515537037}
  m_LocalRotation: {x: 0.43154463, y: -0.21102265, z: 0.10457899, w: 0.8708053}
  m_LocalPosition: {x: 5.690524, y: 1.9578875, z: -1.187699}
  m_LocalScale: {x: 1, y: 1, z: 1}
  m_ConstrainProportionsScale: 0
  m_Children: []
  m_Father: {fileID: 0}
  m_RootOrder: 0
  m_LocalEulerAnglesHint: {x: 0, y: 0, z: 0}
--- !u!1 &1611865460
GameObject:
  m_ObjectHideFlags: 0
  m_CorrespondingSourceObject: {fileID: 0}
  m_PrefabInstance: {fileID: 0}
  m_PrefabAsset: {fileID: 0}
  serializedVersion: 6
  m_Component:
  - component: {fileID: 1611865462}
  - component: {fileID: 1611865461}
  m_Layer: 0
  m_Name: Directional Light
  m_TagString: Untagged
  m_Icon: {fileID: 0}
  m_NavMeshLayer: 0
  m_StaticEditorFlags: 0
  m_IsActive: 1
--- !u!108 &1611865461
Light:
  m_ObjectHideFlags: 0
  m_CorrespondingSourceObject: {fileID: 0}
  m_PrefabInstance: {fileID: 0}
  m_PrefabAsset: {fileID: 0}
  m_GameObject: {fileID: 1611865460}
  m_Enabled: 1
  serializedVersion: 10
  m_Type: 1
  m_Shape: 0
  m_Color: {r: 1, g: 0.95686275, b: 0.8392157, a: 1}
  m_Intensity: 1
  m_Range: 10
  m_SpotAngle: 30
  m_InnerSpotAngle: 21.80208
  m_CookieSize: 10
  m_Shadows:
    m_Type: 2
    m_Resolution: -1
    m_CustomResolution: -1
    m_Strength: 1
    m_Bias: 0.05
    m_NormalBias: 0.4
    m_NearPlane: 0.2
    m_CullingMatrixOverride:
      e00: 1
      e01: 0
      e02: 0
      e03: 0
      e10: 0
      e11: 1
      e12: 0
      e13: 0
      e20: 0
      e21: 0
      e22: 1
      e23: 0
      e30: 0
      e31: 0
      e32: 0
      e33: 1
    m_UseCullingMatrixOverride: 0
  m_Cookie: {fileID: 0}
  m_DrawHalo: 0
  m_Flare: {fileID: 0}
  m_RenderMode: 0
  m_CullingMask:
    serializedVersion: 2
    m_Bits: 4294967295
  m_RenderingLayerMask: 1
  m_Lightmapping: 4
  m_LightShadowCasterMode: 0
  m_AreaSize: {x: 1, y: 1}
  m_BounceIntensity: 1
  m_ColorTemperature: 6570
  m_UseColorTemperature: 0
  m_BoundingSphereOverride: {x: 0, y: 0, z: 0, w: 0}
  m_UseBoundingSphereOverride: 0
  m_UseViewFrustumForShadowCasterCull: 1
  m_ShadowRadius: 0
  m_ShadowAngle: 0
--- !u!4 &1611865462
Transform:
  m_ObjectHideFlags: 0
  m_CorrespondingSourceObject: {fileID: 0}
  m_PrefabInstance: {fileID: 0}
  m_PrefabAsset: {fileID: 0}
  m_GameObject: {fileID: 1611865460}
  m_LocalRotation: {x: 0.43154457, y: -0.21102293, z: 0.10457903, w: 0.8708053}
  m_LocalPosition: {x: 5.690524, y: 1.9578875, z: -1.187699}
  m_LocalScale: {x: 1, y: 1, z: 1}
  m_ConstrainProportionsScale: 0
  m_Children: []
  m_Father: {fileID: 0}
  m_RootOrder: 1
  m_LocalEulerAnglesHint: {x: 22.1, y: 87.9, z: 0}
